/Users/rchandra/eclipse-workspace/honeycomb/src/test/java/tests/Login.java
/Users/rchandra/eclipse-workspace/honeycomb/src/test/java/runner/TestRunner.java
/Users/rchandra/eclipse-workspace/honeycomb/src/test/java/stepsDefinitions/ApiTestdefs.java
/Users/rchandra/eclipse-workspace/honeycomb/src/test/java/tests/ApiTest.java
/Users/rchandra/eclipse-workspace/honeycomb/src/test/java/stepsDefinitions/TM_Favorite.java
/Users/rchandra/eclipse-workspace/honeycomb/src/test/java/PageObjects/HomePage.java
